{
  "prepare_queue": {
    "installed": [],
    "uninstalled": []
  },
  "config_munge": {
    "files": {}
  },
  "installed_plugins": {
    "cordova-plugin-crosswalk-webview": {
      "XWALK_VERSION": "23+",
      "XWALK_LITEVERSION": "xwalk_core_library_canary:17+",
      "XWALK_COMMANDLINE": "--disable-pull-to-refresh-effect",
      "XWALK_MODE": "embedded",
      "XWALK_MULTIPLEAPK": "true",
      "PACKAGE_NAME": "com.kkode.hisistem"
    },
    "cordova-plugin-whitelist": {
      "PACKAGE_NAME": "com.kkode.hisistem"
    }
  },
  "dependent_plugins": {}
}