-- Merging decision tree log ---
manifest
ADDED from E:\kerja\hibrid\hybrid-base\platforms\android\app\src\main\AndroidManifest.xml:2:1-16:12
INJECTED from E:\kerja\hibrid\hybrid-base\platforms\android\app\src\main\AndroidManifest.xml:2:1-16:12
INJECTED from E:\kerja\hibrid\hybrid-base\platforms\android\app\src\main\AndroidManifest.xml:2:1-16:12
INJECTED from E:\kerja\hibrid\hybrid-base\platforms\android\app\src\main\AndroidManifest.xml:2:1-16:12
MERGED from [org.xwalk:xwalk_core_library:23.53.589.4] C:\Users\didik\.gradle\caches\transforms-1\files-1.1\xwalk_core_library-23.53.589.4.aar\395e45605edac0605bf67dcbf3f63eee\AndroidManifest.xml:1:1-9:12
MERGED from [:CordovaLib] E:\kerja\hibrid\hybrid-base\platforms\android\CordovaLib\build\intermediates\manifests\full\debug\AndroidManifest.xml:20:1-27:12
MERGED from [com.android.support:support-v4:27.1.0] C:\Users\didik\.gradle\caches\transforms-1\files-1.1\support-v4-27.1.0.aar\9581b0b4c14f3de597295e6b4a9f6ead\AndroidManifest.xml:17:1-22:12
MERGED from [com.android.support:support-media-compat:27.1.0] C:\Users\didik\.gradle\caches\transforms-1\files-1.1\support-media-compat-27.1.0.aar\bfe7b4ebc764931659c8b896f0d5cd3c\AndroidManifest.xml:17:1-22:12
MERGED from [com.android.support:support-fragment:27.1.0] C:\Users\didik\.gradle\caches\transforms-1\files-1.1\support-fragment-27.1.0.aar\5b3b508d6e0f70fb95b4049260c5c8da\AndroidManifest.xml:17:1-22:12
MERGED from [com.android.support:support-core-ui:27.1.0] C:\Users\didik\.gradle\caches\transforms-1\files-1.1\support-core-ui-27.1.0.aar\c12e16d8960986f896aec8938e20fc1f\AndroidManifest.xml:17:1-22:12
MERGED from [com.android.support:support-core-utils:27.1.0] C:\Users\didik\.gradle\caches\transforms-1\files-1.1\support-core-utils-27.1.0.aar\ee6d974ac8fe8755b0f088050f6cdd6f\AndroidManifest.xml:17:1-22:12
MERGED from [com.android.support:support-compat:27.1.0] C:\Users\didik\.gradle\caches\transforms-1\files-1.1\support-compat-27.1.0.aar\30eafa7467b25f5fb635b7222b8d48fe\AndroidManifest.xml:17:1-22:12
MERGED from [android.arch.lifecycle:runtime:1.1.0] C:\Users\didik\.gradle\caches\transforms-1\files-1.1\runtime-1.1.0.aar\2e5a6f2758226fcb03ba1b05bccdb381\AndroidManifest.xml:17:1-22:12
MERGED from [android.arch.lifecycle:livedata-core:1.1.0] C:\Users\didik\.gradle\caches\transforms-1\files-1.1\livedata-core-1.1.0.aar\a36c7828a65c03c7961fb97e1e0317ca\AndroidManifest.xml:17:1-22:12
MERGED from [android.arch.lifecycle:viewmodel:1.1.0] C:\Users\didik\.gradle\caches\transforms-1\files-1.1\viewmodel-1.1.0.aar\ed75c0db130287b63248a11059c2924b\AndroidManifest.xml:17:1-22:12
MERGED from [android.arch.core:runtime:1.1.0] C:\Users\didik\.gradle\caches\transforms-1\files-1.1\runtime-1.1.0.aar\ef108dfd3e7b5e3766ebb0fd3e9eb590\AndroidManifest.xml:17:1-22:12
INJECTED from E:\kerja\hibrid\hybrid-base\platforms\android\app\src\main\AndroidManifest.xml:2:1-16:12
INJECTED from E:\kerja\hibrid\hybrid-base\platforms\android\app\src\main\AndroidManifest.xml:2:1-16:12
INJECTED from E:\kerja\hibrid\hybrid-base\platforms\android\app\src\main\AndroidManifest.xml:2:1-16:12
	package
		ADDED from E:\kerja\hibrid\hybrid-base\platforms\android\app\src\main\AndroidManifest.xml:2:102-130
		INJECTED from E:\kerja\hibrid\hybrid-base\platforms\android\app\src\main\AndroidManifest.xml
		INJECTED from E:\kerja\hibrid\hybrid-base\platforms\android\app\src\main\AndroidManifest.xml
	android:versionName
		ADDED from E:\kerja\hibrid\hybrid-base\platforms\android\app\src\main\AndroidManifest.xml:2:74-101
		INJECTED from E:\kerja\hibrid\hybrid-base\platforms\android\app\src\main\AndroidManifest.xml
		INJECTED from E:\kerja\hibrid\hybrid-base\platforms\android\app\src\main\AndroidManifest.xml
	android:hardwareAccelerated
		ADDED from E:\kerja\hibrid\hybrid-base\platforms\android\app\src\main\AndroidManifest.xml:2:11-45
	xmlns:android
		ADDED from E:\kerja\hibrid\hybrid-base\platforms\android\app\src\main\AndroidManifest.xml:2:131-189
	android:versionCode
		ADDED from E:\kerja\hibrid\hybrid-base\platforms\android\app\src\main\AndroidManifest.xml:2:46-73
		INJECTED from E:\kerja\hibrid\hybrid-base\platforms\android\app\src\main\AndroidManifest.xml
		INJECTED from E:\kerja\hibrid\hybrid-base\platforms\android\app\src\main\AndroidManifest.xml
supports-screens
ADDED from E:\kerja\hibrid\hybrid-base\platforms\android\app\src\main\AndroidManifest.xml:3:5-191
	android:largeScreens
		ADDED from E:\kerja\hibrid\hybrid-base\platforms\android\app\src\main\AndroidManifest.xml:3:49-76
	android:smallScreens
		ADDED from E:\kerja\hibrid\hybrid-base\platforms\android\app\src\main\AndroidManifest.xml:3:132-159
	android:normalScreens
		ADDED from E:\kerja\hibrid\hybrid-base\platforms\android\app\src\main\AndroidManifest.xml:3:77-105
	android:xlargeScreens
		ADDED from E:\kerja\hibrid\hybrid-base\platforms\android\app\src\main\AndroidManifest.xml:3:160-188
	android:resizeable
		ADDED from E:\kerja\hibrid\hybrid-base\platforms\android\app\src\main\AndroidManifest.xml:3:106-131
	android:anyDensity
		ADDED from E:\kerja\hibrid\hybrid-base\platforms\android\app\src\main\AndroidManifest.xml:3:23-48
uses-permission#android.permission.INTERNET
ADDED from E:\kerja\hibrid\hybrid-base\platforms\android\app\src\main\AndroidManifest.xml:4:5-67
	android:name
		ADDED from E:\kerja\hibrid\hybrid-base\platforms\android\app\src\main\AndroidManifest.xml:4:22-64
application
ADDED from E:\kerja\hibrid\hybrid-base\platforms\android\app\src\main\AndroidManifest.xml:5:5-12:19
	android:supportsRtl
		ADDED from E:\kerja\hibrid\hybrid-base\platforms\android\app\src\main\AndroidManifest.xml:5:114-140
	android:label
		ADDED from E:\kerja\hibrid\hybrid-base\platforms\android\app\src\main\AndroidManifest.xml:5:81-113
	android:hardwareAccelerated
		ADDED from E:\kerja\hibrid\hybrid-base\platforms\android\app\src\main\AndroidManifest.xml:5:18-52
	android:icon
		ADDED from E:\kerja\hibrid\hybrid-base\platforms\android\app\src\main\AndroidManifest.xml:5:53-80
activity#com.kkode.hisistem.MainActivity
ADDED from E:\kerja\hibrid\hybrid-base\platforms\android\app\src\main\AndroidManifest.xml:6:9-11:20
	android:label
		ADDED from E:\kerja\hibrid\hybrid-base\platforms\android\app\src\main\AndroidManifest.xml:6:97-134
	android:launchMode
		ADDED from E:\kerja\hibrid\hybrid-base\platforms\android\app\src\main\AndroidManifest.xml:6:135-165
	android:windowSoftInputMode
		ADDED from E:\kerja\hibrid\hybrid-base\platforms\android\app\src\main\AndroidManifest.xml:6:257-299
	android:configChanges
		ADDED from E:\kerja\hibrid\hybrid-base\platforms\android\app\src\main\AndroidManifest.xml:6:19-96
	android:theme
		ADDED from E:\kerja\hibrid\hybrid-base\platforms\android\app\src\main\AndroidManifest.xml:6:194-256
	android:name
		ADDED from E:\kerja\hibrid\hybrid-base\platforms\android\app\src\main\AndroidManifest.xml:6:166-193
intent-filter#android.intent.action.MAIN+android.intent.category.LAUNCHER
ADDED from E:\kerja\hibrid\hybrid-base\platforms\android\app\src\main\AndroidManifest.xml:7:13-10:29
	android:label
		ADDED from E:\kerja\hibrid\hybrid-base\platforms\android\app\src\main\AndroidManifest.xml:7:28-65
action#android.intent.action.MAIN
ADDED from E:\kerja\hibrid\hybrid-base\platforms\android\app\src\main\AndroidManifest.xml:8:17-69
	android:name
		ADDED from E:\kerja\hibrid\hybrid-base\platforms\android\app\src\main\AndroidManifest.xml:8:25-66
category#android.intent.category.LAUNCHER
ADDED from E:\kerja\hibrid\hybrid-base\platforms\android\app\src\main\AndroidManifest.xml:9:17-77
	android:name
		ADDED from E:\kerja\hibrid\hybrid-base\platforms\android\app\src\main\AndroidManifest.xml:9:27-74
uses-sdk
ADDED from E:\kerja\hibrid\hybrid-base\platforms\android\app\src\main\AndroidManifest.xml:13:5-74
INJECTED from E:\kerja\hibrid\hybrid-base\platforms\android\app\src\main\AndroidManifest.xml:13:5-74
MERGED from [org.xwalk:xwalk_core_library:23.53.589.4] C:\Users\didik\.gradle\caches\transforms-1\files-1.1\xwalk_core_library-23.53.589.4.aar\395e45605edac0605bf67dcbf3f63eee\AndroidManifest.xml:6:5-8:41
MERGED from [org.xwalk:xwalk_core_library:23.53.589.4] C:\Users\didik\.gradle\caches\transforms-1\files-1.1\xwalk_core_library-23.53.589.4.aar\395e45605edac0605bf67dcbf3f63eee\AndroidManifest.xml:6:5-8:41
MERGED from [:CordovaLib] E:\kerja\hibrid\hybrid-base\platforms\android\CordovaLib\build\intermediates\manifests\full\debug\AndroidManifest.xml:25:5-44
MERGED from [:CordovaLib] E:\kerja\hibrid\hybrid-base\platforms\android\CordovaLib\build\intermediates\manifests\full\debug\AndroidManifest.xml:25:5-44
MERGED from [com.android.support:support-v4:27.1.0] C:\Users\didik\.gradle\caches\transforms-1\files-1.1\support-v4-27.1.0.aar\9581b0b4c14f3de597295e6b4a9f6ead\AndroidManifest.xml:20:5-44
MERGED from [com.android.support:support-v4:27.1.0] C:\Users\didik\.gradle\caches\transforms-1\files-1.1\support-v4-27.1.0.aar\9581b0b4c14f3de597295e6b4a9f6ead\AndroidManifest.xml:20:5-44
MERGED from [com.android.support:support-media-compat:27.1.0] C:\Users\didik\.gradle\caches\transforms-1\files-1.1\support-media-compat-27.1.0.aar\bfe7b4ebc764931659c8b896f0d5cd3c\AndroidManifest.xml:20:5-44
MERGED from [com.android.support:support-media-compat:27.1.0] C:\Users\didik\.gradle\caches\transforms-1\files-1.1\support-media-compat-27.1.0.aar\bfe7b4ebc764931659c8b896f0d5cd3c\AndroidManifest.xml:20:5-44
MERGED from [com.android.support:support-fragment:27.1.0] C:\Users\didik\.gradle\caches\transforms-1\files-1.1\support-fragment-27.1.0.aar\5b3b508d6e0f70fb95b4049260c5c8da\AndroidManifest.xml:20:5-44
MERGED from [com.android.support:support-fragment:27.1.0] C:\Users\didik\.gradle\caches\transforms-1\files-1.1\support-fragment-27.1.0.aar\5b3b508d6e0f70fb95b4049260c5c8da\AndroidManifest.xml:20:5-44
MERGED from [com.android.support:support-core-ui:27.1.0] C:\Users\didik\.gradle\caches\transforms-1\files-1.1\support-core-ui-27.1.0.aar\c12e16d8960986f896aec8938e20fc1f\AndroidManifest.xml:20:5-44
MERGED from [com.android.support:support-core-ui:27.1.0] C:\Users\didik\.gradle\caches\transforms-1\files-1.1\support-core-ui-27.1.0.aar\c12e16d8960986f896aec8938e20fc1f\AndroidManifest.xml:20:5-44
MERGED from [com.android.support:support-core-utils:27.1.0] C:\Users\didik\.gradle\caches\transforms-1\files-1.1\support-core-utils-27.1.0.aar\ee6d974ac8fe8755b0f088050f6cdd6f\AndroidManifest.xml:20:5-44
MERGED from [com.android.support:support-core-utils:27.1.0] C:\Users\didik\.gradle\caches\transforms-1\files-1.1\support-core-utils-27.1.0.aar\ee6d974ac8fe8755b0f088050f6cdd6f\AndroidManifest.xml:20:5-44
MERGED from [com.android.support:support-compat:27.1.0] C:\Users\didik\.gradle\caches\transforms-1\files-1.1\support-compat-27.1.0.aar\30eafa7467b25f5fb635b7222b8d48fe\AndroidManifest.xml:20:5-44
MERGED from [com.android.support:support-compat:27.1.0] C:\Users\didik\.gradle\caches\transforms-1\files-1.1\support-compat-27.1.0.aar\30eafa7467b25f5fb635b7222b8d48fe\AndroidManifest.xml:20:5-44
MERGED from [android.arch.lifecycle:runtime:1.1.0] C:\Users\didik\.gradle\caches\transforms-1\files-1.1\runtime-1.1.0.aar\2e5a6f2758226fcb03ba1b05bccdb381\AndroidManifest.xml:20:5-44
MERGED from [android.arch.lifecycle:runtime:1.1.0] C:\Users\didik\.gradle\caches\transforms-1\files-1.1\runtime-1.1.0.aar\2e5a6f2758226fcb03ba1b05bccdb381\AndroidManifest.xml:20:5-44
MERGED from [android.arch.lifecycle:livedata-core:1.1.0] C:\Users\didik\.gradle\caches\transforms-1\files-1.1\livedata-core-1.1.0.aar\a36c7828a65c03c7961fb97e1e0317ca\AndroidManifest.xml:20:5-44
MERGED from [android.arch.lifecycle:livedata-core:1.1.0] C:\Users\didik\.gradle\caches\transforms-1\files-1.1\livedata-core-1.1.0.aar\a36c7828a65c03c7961fb97e1e0317ca\AndroidManifest.xml:20:5-44
MERGED from [android.arch.lifecycle:viewmodel:1.1.0] C:\Users\didik\.gradle\caches\transforms-1\files-1.1\viewmodel-1.1.0.aar\ed75c0db130287b63248a11059c2924b\AndroidManifest.xml:20:5-44
MERGED from [android.arch.lifecycle:viewmodel:1.1.0] C:\Users\didik\.gradle\caches\transforms-1\files-1.1\viewmodel-1.1.0.aar\ed75c0db130287b63248a11059c2924b\AndroidManifest.xml:20:5-44
MERGED from [android.arch.core:runtime:1.1.0] C:\Users\didik\.gradle\caches\transforms-1\files-1.1\runtime-1.1.0.aar\ef108dfd3e7b5e3766ebb0fd3e9eb590\AndroidManifest.xml:20:5-44
MERGED from [android.arch.core:runtime:1.1.0] C:\Users\didik\.gradle\caches\transforms-1\files-1.1\runtime-1.1.0.aar\ef108dfd3e7b5e3766ebb0fd3e9eb590\AndroidManifest.xml:20:5-44
INJECTED from E:\kerja\hibrid\hybrid-base\platforms\android\app\src\main\AndroidManifest.xml:13:5-74
	android:targetSdkVersion
		ADDED from E:\kerja\hibrid\hybrid-base\platforms\android\app\src\main\AndroidManifest.xml:13:42-71
	android:minSdkVersion
		ADDED from E:\kerja\hibrid\hybrid-base\platforms\android\app\src\main\AndroidManifest.xml:13:15-41
		INJECTED from E:\kerja\hibrid\hybrid-base\platforms\android\app\src\main\AndroidManifest.xml
		INJECTED from E:\kerja\hibrid\hybrid-base\platforms\android\app\src\main\AndroidManifest.xml
uses-permission#android.permission.ACCESS_NETWORK_STATE
ADDED from E:\kerja\hibrid\hybrid-base\platforms\android\app\src\main\AndroidManifest.xml:14:5-79
	android:name
		ADDED from E:\kerja\hibrid\hybrid-base\platforms\android\app\src\main\AndroidManifest.xml:14:22-76
uses-permission#android.permission.ACCESS_WIFI_STATE
ADDED from E:\kerja\hibrid\hybrid-base\platforms\android\app\src\main\AndroidManifest.xml:15:5-76
	android:name
		ADDED from E:\kerja\hibrid\hybrid-base\platforms\android\app\src\main\AndroidManifest.xml:15:22-73
